Data Simulation Workshop - 3 Data wrangling using the tidyverse
…
3.5 Group and summarise data

3.5.1 group_by() and summarise()

With these functions you can group a data frame by factor levels and calculate mean scores or else.

# look at each individual
d |> group_by(id) |>
    summarise(mean_x = mean(x),
              mean_y = mean(y))

# A tibble: 142 × 3
   id    mean_x mean_y
   <fct>  <dbl>  <dbl>
 1 1       48.7   80.3
 2 2       53.5   71.7
 3 3       53.3   73.4
 4 4       53.1   84.5
 5 5       40.2   74.1
 6 6       47.3   70.6
 7 7       44.3   84.2
 8 8       44.6   65.6
 9 9       43.2   78.0
10 10      38.9   61.7
# ℹ 132 more rows
…
